…
+   split = d_split)
! train/test split: preprocessor 1/1, model 1/1 (predictions): There are new levels in a fac...
> 
> lr_final_res %>%
+   collect_metrics()
# A tibble: 2 x 4
  .metric .estimator .estimate .config             
  <chr>   <chr>          <dbl> <fct>               
1 rmse    standard      89.0   Preprocessor1_Model1
2 rsq     standard       0.409 Preprocessor1_Model1
> 
> #get predictions from test set (within split object)
> test_preds <- lr_final_res %>% collect_predictions()
> test_preds
# A tibble: 47,355 x 5
   id               .pred  .row score .config             
   <chr>            <dbl> <int> <dbl> <fct>               
 1 train/test split 2559.     3  2551 Preprocessor1_Model1
 2 train/test split 2536.    10  2395 Preprocessor1_Model1
 3 train/test split 2567.    18  2505 Preprocessor1_Model1
 4 train/test split 2443.    21  2569 Preprocessor1_Model1
 5 train/test split 2507.    31  2366 Preprocessor1_Model1
 6 train/test split 2474.    33  2490 Preprocessor1_Model1
 7 train/test split 2557.    35  2304 Preprocessor1_Model1
 8 train/test split 2506.    36  2505 Preprocessor1_Model1
 9 train/test split 2554.    38  2441 Preprocessor1_Model1
10 train/test split 2533.    39  2289 Preprocessor1_Model1
# … with 47,345 more rows
…
